[ 
	{"name": "Tiric Technilogy", "code": "TK"}, 
	{"name": "Aise Soft", "code": "AX"}, 
	{"name": "Soft Tech", "code": "ST"}, 
	{"name": "Moc Indock", "code": "IN"},
	{"name": "Micks Technology", "code": "FH"},
	{"name": "Tulik Technology", "code": "TK"},
	{"name": "Micka Soft", "code": "MK"},
	{"name": "Lily Technology", "code": "LT"},  
	{"name": "American Samoa", "code": "AS"}
 ]